{
  "profiles": {
    "DataLoader": {
      "commandName": "Project",
      "commandLineArgs": "--haplogroups=real\r\n--regions=czech-json\r\n--regions-file=D:\\skola\\softwarak\\repo\\source\\frontend\\public\\topo.json\r\n--real-users-file data_loader_real_users.json\r\n--users=real\r\n--user-password=\"TotallyRandom_42\"\r\n--root-email=\"root@dnaportal.cz\"\r\n--root-password=\"TotallyRandom_42\"\r\n--mock-kits\r\n--mock-kits-per-stage=100\r\n--mock-admins\r\n--mock-admin-password=\"TotallyRandom_42\""
    }
  }
}