{
    "MaxDistance" : 18,
    "Markers": [ "DYS393", "DYS390", "DYS19", "DYS391", "DYS385a", "DYS385b", "DYS426", "DYS388", "DYS439", "DYS389I", "DYS392", "DYS389II", "DYS458", "DYS459a", "DYS459b", "DYS455", "DYS454", "DYS447", "DYS437", "DYS448", "DYS449", "DYS464a", "DYS464b", "DYS464c", "DYS464d", "DYS460", "Y-GATA-H4", "YCAIIa", "YCAIIb", "DYS456", "DYS607", "DYS576", "DYS570", "CDYa", "CDYb", "DYS442", "DYS438", "DYS531", "DYS578", "DYF395S1a", "DYF395S1b", "DYS590", "DYS537", "DYS641", "DYS472", "DYF406S1", "DYS511", "DYS425", "DYS413a", "DYS413b", "DYS557", "DYS594", "DYS436", "DYS490", "DYS534", "DYS450", "DYS444", "DYS481", "DYS520", "DYS446", "DYS617", "DYS568", "DYS487", "DYS572", "DYS640", "DYS492", "DYS565" ]
}