{
  "metadata": [
    {
      "src": [
        {
          "files": [
            "*.sln"
          ],
          "src": "../../source/GAP.Backend"
        }
      ],
      "dest": "api",
      "includePrivateMembers": false,
      "disableGitFeatures": false,
      "disableDefaultFilter": false,
      "noRestore": false,
      "namespaceLayout": "nested",
      "memberLayout": "samePage",
      "allowCompilationErrors": false
    }
  ],
  "build": {
    "content": [
      {
        "files": [
          "api/**.yml",
          "api/index.md"
        ]
      },
      {
        "files": [
          "developer-documentation/**.md",
          "developer-documentation/**/toc.yml",
          "user-documentation/**.md",
          "user-documentation/**/toc.yml",
          "extensions/**.md",
          "extensions/**/toc.yml",
          "toc.yml",
          "*.md"
        ]
      }
    ],
    "resource": [
      {
        "files": [
          "**/images/**"
        ]
      }
    ],
    "output": "_site",
    "globalMetadataFiles": [],
    "fileMetadataFiles": [],
    "template": [
      "default",
      "modern"
    ],
    "postProcessors": [],
    "keepFileLink": false,
    "disableGitFeatures": false
  }
}

